# Params: currentDid;  buildingId; untilLvlRepeat; slotId;
# Note: slot 0 = take slot of building with min lvl or use empty slot for new construction
# -----------------------------
; 15; 3; 26;  Главное здание
; 10; 1; 20; Склад
; 11; 1; 19; Амбар
; 16; 1; 39; Пункт сбора
#; 23; 10; 37; Тайник

# 4-4-4-6
# ----[Round 1]----------------
; 2; 2; 0; Глиняный карьер
; 1; 2; 0; Лесопилка
; 3; 1; 0; Железный рудник
; 4; 1; 0; Ферма
# -----------------------------
; 2; 2; 0; Глиняный карьер
; 1; 2; 0; Лесопилка
; 3; 1; 0; Железный рудник
; 4; 1; 0; Ферма
# -----------------------------
; 2; 2; 0; Глиняный карьер
; 1; 2; 0; Лесопилка
; 3; 1; 0; Железный рудник
; 4; 1; 0; Ферма
# -----------------------------
; 2; 2; 0; Глиняный карьер
; 1; 2; 0; Лесопилка
; 3; 1; 0; Железный рудник
; 4; 1; 0; Ферма
# -----------------------------
; 2; 2; 0; Глиняный карьер
; 1; 2; 0; Лесопилка
; 3; 1; 0; Железный рудник
; 4; 1; 0; Ферма

#; 4; 1; 0; Ферма
#; 4; 1; 0; Ферма
# ----[Round 2]----------------
; 2; 3; 0; Глиняный карьер
; 1; 3; 0; Лесопилка
; 3; 2; 0; Железный рудник
; 4; 2; 0; Ферма
# -----------------------------
; 2; 3; 0; Глиняный карьер
; 1; 3; 0; Лесопилка
; 3; 2; 0; Железный рудник
; 4; 2; 0; Ферма
# -----------------------------
; 2; 3; 0; Глиняный карьер
; 1; 3; 0; Лесопилка
; 3; 2; 0; Железный рудник
; 4; 2; 0; Ферма
# -----------------------------
; 2; 3; 0; Глиняный карьер
; 1; 3; 0; Лесопилка
; 3; 2; 0; Железный рудник
; 4; 2; 0; Ферма
# -----------------------------
; 2; 3; 0; Глиняный карьер
; 1; 3; 0; Лесопилка
; 3; 2; 0; Железный рудник
; 4; 2; 0; Ферма

#; 4; 2; 0; Ферма
#; 4; 2; 0; Ферма
# ----[Round 3]----------------
; 2; 4; 0; Глиняный карьер
; 1; 4; 0; Лесопилка
; 3; 3; 0; Железный рудник
; 4; 3; 0; Ферма
# -----------------------------
; 2; 4; 0; Глиняный карьер
; 1; 4; 0; Лесопилка
; 3; 3; 0; Железный рудник
; 4; 3; 0; Ферма
# -----------------------------
; 2; 4; 0; Глиняный карьер
; 1; 4; 0; Лесопилка
; 3; 3; 0; Железный рудник
; 4; 3; 0; Ферма
# -----------------------------
; 2; 4; 0; Глиняный карьер
; 1; 4; 0; Лесопилка
; 3; 3; 0; Железный рудник
; 4; 3; 0; Ферма
# -----------------------------
; 2; 4; 0; Глиняный карьер
; 1; 4; 0; Лесопилка
; 3; 3; 0; Железный рудник
; 4; 3; 0; Ферма

#; 4; 3; 0; Ферма
#; 4; 3; 0; Ферма
# ----[Round 4]----------------
; 2; 4; 0; Глиняный карьер
; 1; 4; 0; Лесопилка
; 3; 3; 0; Железный рудник
; 4; 3; 0; Ферма
# -----------------------------
; 2; 4; 0; Глиняный карьер
; 1; 4; 0; Лесопилка
; 3; 3; 0; Железный рудник
; 4; 3; 0; Ферма
# -----------------------------
; 2; 4; 0; Глиняный карьер
; 1; 4; 0; Лесопилка
; 3; 3; 0; Железный рудник
; 4; 3; 0; Ферма
# -----------------------------
; 2; 4; 0; Глиняный карьер
; 1; 4; 0; Лесопилка
; 3; 3; 0; Железный рудник
; 4; 3; 0; Ферма
# -----------------------------
; 2; 4; 0; Глиняный карьер
; 1; 4; 0; Лесопилка
; 3; 3; 0; Железный рудник
; 4; 3; 0; Ферма

#; 4; 3; 0; Ферма
#; 4; 3; 0; Ферма
# ----[Round 5]----------------
; 2; 5; 0; Глиняный карьер
; 1; 5; 0; Лесопилка
; 3; 4; 0; Железный рудник
; 4; 4; 0; Ферма
# -----------------------------
; 2; 5; 0; Глиняный карьер
; 1; 5; 0; Лесопилка
; 3; 4; 0; Железный рудник
; 4; 4; 0; Ферма
# -----------------------------
; 2; 5; 0; Глиняный карьер
; 1; 5; 0; Лесопилка
; 3; 4; 0; Железный рудник
; 4; 4; 0; Ферма
# -----------------------------
; 2; 5; 0; Глиняный карьер
; 1; 5; 0; Лесопилка
; 3; 4; 0; Железный рудник
; 4; 4; 0; Ферма
# -----------------------------
; 2; 5; 0; Глиняный карьер
; 1; 5; 0; Лесопилка
; 3; 4; 0; Железный рудник
; 4; 4; 0; Ферма

#; 4; 4; 0; Ферма
#; 4; 4; 0; Ферма
#-----[Center building]
; 15; 5; 26;  Главное здание
; 10; 3; 20; Склад (2300)
; 11; 3; 19; Амбар (2300)
; 17; 3; 35; Рынок

# ----[Round 6]----------------
; 2; 6; 0; Глиняный карьер
; 1; 6; 0; Лесопилка
; 3; 5; 0; Железный рудник
; 4; 5; 0; Ферма
# -----------------------------
; 2; 6; 0; Глиняный карьер
; 1; 6; 0; Лесопилка
; 3; 5; 0; Железный рудник
; 4; 5; 0; Ферма
# -----------------------------
; 2; 6; 0; Глиняный карьер
; 1; 6; 0; Лесопилка
; 3; 5; 0; Железный рудник
; 4; 5; 0; Ферма
# -----------------------------
; 2; 6; 0; Глиняный карьер
; 1; 6; 0; Лесопилка
; 3; 5; 0; Железный рудник
; 4; 5; 0; Ферма
# -----------------------------
; 2; 6; 0; Глиняный карьер
; 1; 6; 0; Лесопилка
; 3; 5; 0; Железный рудник
; 4; 5; 0; Ферма

#; 4; 5; 0; Ферма
#; 4; 5; 0; Ферма

#-----[Center building]
; 15; 6; 26;  Главное здание
; 10; 5; 20; Склад (4000)
; 11; 5; 19; Амбар (5000)

# ----[Round 7]----------------
; 2; 7; 0; Глиняный карьер
; 1; 7; 0; Лесопилка
; 3; 6; 0; Железный рудник
; 4; 6; 0; Ферма
# -----------------------------
; 2; 7; 0; Глиняный карьер
; 1; 7; 0; Лесопилка
; 3; 6; 0; Железный рудник
; 4; 6; 0; Ферма
# -----------------------------
; 2; 7; 0; Глиняный карьер
; 1; 7; 0; Лесопилка
; 3; 6; 0; Железный рудник
; 4; 6; 0; Ферма
# -----------------------------
; 2; 7; 0; Глиняный карьер
; 1; 7; 0; Лесопилка
; 3; 6; 0; Железный рудник
; 4; 6; 0; Ферма
# -----------------------------
; 2; 7; 0; Глиняный карьер
; 1; 7; 0; Лесопилка
; 3; 6; 0; Железный рудник
; 4; 6; 0; Ферма

#; 4; 6; 0; Ферма
#; 4; 6; 0; Ферма

#-----[Center building]
; 15; 7; 26;  Главное здание
; 10; 7; 20; Склад (6300)
; 11; 7; 19; Амбар (6300)

# ----[Round 8]----------------
; 2; 8; 0; Глиняный карьер
; 1; 8; 0; Лесопилка
; 3; 7; 0; Железный рудник
; 4; 7; 0; Ферма
# -----------------------------
; 2; 8; 0; Глиняный карьер
; 1; 8; 0; Лесопилка
; 3; 7; 0; Железный рудник
; 4; 7; 0; Ферма
# -----------------------------
; 2; 8; 0; Глиняный карьер
; 1; 8; 0; Лесопилка
; 3; 7; 0; Железный рудник
; 4; 7; 0; Ферма
# -----------------------------
; 2; 8; 0; Глиняный карьер
; 1; 8; 0; Лесопилка
; 3; 7; 0; Железный рудник
; 4; 7; 0; Ферма
# -----------------------------
; 2; 8; 0; Глиняный карьер
; 1; 8; 0; Лесопилка
; 3; 7; 0; Железный рудник
; 4; 7; 0; Ферма

#; 4; 7; 0; Ферма
#; 4; 7; 0; Ферма

#-----[Center building]
; 15; 8; 26;  Главное здание
; 10; 8; 20; Склад (7800)
; 11; 8; 19; Амбар (7800)

# ----[Round 9]----------------
; 2; 9; 0; Глиняный карьер
; 1; 9; 0; Лесопилка
; 3; 8; 0; Железный рудник
; 4; 8; 0; Ферма
# -----------------------------
; 2; 9; 0; Глиняный карьер
; 1; 9; 0; Лесопилка
; 3; 8; 0; Железный рудник
; 4; 8; 0; Ферма
# -----------------------------
; 2; 9; 0; Глиняный карьер
; 1; 9; 0; Лесопилка
; 3; 8; 0; Железный рудник
; 4; 8; 0; Ферма
# -----------------------------
; 2; 9; 0; Глиняный карьер
; 1; 9; 0; Лесопилка
; 3; 8; 0; Железный рудник
; 4; 8; 0; Ферма
# -----------------------------
; 2; 9; 0; Глиняный карьер
; 1; 9; 0; Лесопилка
; 3; 8; 0; Железный рудник
; 4; 8; 0; Ферма

#; 4; 8; 0; Ферма
#; 4; 8; 0; Ферма

#-----[Center building]
; 15; 12; 26;  Главное здание
; 10; 15; 20; Склад (9600)
; 11; 15; 19; Амбар (9650)

# ----[Round 10 - Required for extra buildings]
; 2; 10; 0; Глиняный карьер
; 1; 10; 0; Лесопилка
; 3; 10; 0; Железный рудник
#; 4; 10; 0; Ферма

#-----[Center building]
; 5; 5; 30; Лесопильный завод
; 6; 5; 28; Кирпичный завод
; 7; 5; 27; Чугунолитейный завод

; 8; 5; 32; Мукомольная мельница
; 9; 5; 34; Пекарня

#; 37; 10; 33; Таверна
# -----------------------------
; 2; 10; 0; Глиняный карьер
; 1; 10; 0; Лесопилка
; 3; 9; 0; Железный рудник
; 4; 9; 0; Ферма
# -----------------------------
; 2; 10; 0; Глиняный карьер
; 1; 10; 0; Лесопилка
; 3; 9; 0; Железный рудник
; 4; 9; 0; Ферма
# -----------------------------
; 2; 10; 0; Глиняный карьер
; 1; 10; 0; Лесопилка
; 3; 9; 0; Железный рудник
; 4; 9; 0; Ферма
# -----------------------------
; 2; 10; 0; Глиняный карьер
; 1; 10; 0; Лесопилка
; 3; 9; 0; Железный рудник
; 4; 9; 0; Ферма

#; 4; 9; 0; Ферма
#; 4; 9; 0; Ферма

# ----[Round 11]----------------
; 3; 9; 0; Железный рудник
; 3; 9; 0; Железный рудник
; 4; 9; 0; Ферма
; 4; 9; 0; Ферма
; 4; 9; 0; Ферма
; 4; 9; 0; Ферма

# check what we have on this step
#-----[Center building]
; 25; 10; 29; Резиденция
; 17; 10; 35; Рынок

; 10; 10; 21; Склад
; 11; 10; 24; Амбар

; 37; 10; 33; Таверна

; 17; 19; 35; Рынок

; 19; 3; 31; Казарма
; 22; 10; 22; Академия
; 13; 3; 23; Кузница

; 24; 10; 25; Ратуша

; 11; 20; 24; Амбар
; 10; 20; 21; Склад

; 25; 20; 29; Резиденция
#----[]------------
#; 1; 10; 0; Лесопилка
#; 2; 10; 0; Глиняный карьер
#; 3; 10; 0; Железный рудник
